<!DOCTYPE svg PUBLIC "-//W3C//DTD SVG 20010904//EN" "http://www.w3.org/TR/2001/REC-SVG-20010904/DTD/svg10.dtd">
<svg version="1.0" xmlns="http://www.w3.org/2000/svg" width="1500px" height="3000px" viewBox="0 0 6000 12000" preserveAspectRatio="xMidYMid meet">
<g id="layer101" fill="#010101" stroke="none">
 <path d="M0 6000 l0 -6000 3000 0 3000 0 0 6000 0 6000 -3000 0 -3000 0 0 -6000z"/>
 </g>
<g id="layer102" fill="#333333" stroke="none">
 <path d="M0 11987 c0 -8 52 -78 115 -157 64 -79 114 -147 113 -152 -2 -4 -54 -62 -116 -128 -66 -70 -112 -127 -110 -136 2 -10 66 52 178 172 96 104 222 238 279 298 64 68 99 112 91 114 -7 3 -77 -61 -156 -144 -126 -131 -145 -147 -156 -133 -164 207 -224 279 -230 279 -4 0 -8 -6 -8 -13z"/>
 <path d="M593 11882 c-22 -64 -60 -171 -83 -237 -22 -66 -50 -142 -60 -170 -10 -27 -38 -104 -60 -170 -80 -230 -104 -295 -112 -295 -5 0 -49 37 -100 83 -191 172 -178 162 -178 135 0 -21 81 -101 235 -231 l29 -25 -46 -68 c-50 -75 -131 -191 -184 -267 -22 -30 -34 -59 -34 -79 l0 -32 23 31 c12 18 71 102 130 187 60 86 112 156 118 156 5 0 9 -134 9 -340 0 -396 16 -362 -137 -301 -54 21 -108 42 -120 45 l-23 7 0 -3719 0 -3720 68 -58 c38 -33 122 -106 187 -164 65 -58 143 -127 174 -153 31 -26 57 -51 59 -55 1 -4 -66 -43 -150 -87 -84 -44 -193 -101 -243 -126 -50 -26 -91 -54 -93 -63 -2 -9 0 -16 3 -16 8 0 351 177 432 222 29 16 57 27 62 24 4 -3 -4 -61 -19 -128 -15 -68 -42 -192 -60 -276 -18 -85 -38 -156 -45 -158 -6 -3 -91 34 -189 81 -98 47 -180 85 -182 85 -2 0 -4 -6 -4 -13 0 -7 76 -51 170 -97 93 -46 170 -86 170 -89 0 -3 -77 -77 -170 -165 -107 -100 -170 -166 -170 -178 0 -17 5 -16 40 12 23 18 42 31 44 29 3 -4 99 -180 174 -319 19 -36 45 -83 57 -105 72 -128 135 -255 128 -255 -5 0 -38 26 -74 58 -36 31 -112 98 -169 147 -57 50 -126 110 -152 134 -47 43 -48 43 -48 18 0 -21 28 -51 147 -154 80 -70 187 -164 237 -207 50 -44 92 -83 94 -87 3 -8 9 -7 -218 -49 -236 -44 -260 -50 -260 -66 0 -10 7 -13 22 -10 22 5 119 23 323 61 50 9 95 18 102 20 40 13 17 -22 -197 -300 -42 -55 -112 -146 -154 -202 -42 -56 -81 -105 -86 -108 -6 -4 -10 -22 -10 -41 l0 -34 3000 0 3000 0 -2 1192 -3 1192 -370 208 c-203 115 -377 213 -385 218 -25 15 -4 22 92 31 51 5 143 14 203 19 l110 11 30 -33 c17 -19 95 -113 175 -210 118 -143 146 -172 148 -153 2 17 -30 63 -127 179 -170 204 -186 225 -175 235 5 4 74 54 154 111 80 56 147 104 148 106 2 1 2 10 0 19 -2 13 -38 -9 -151 -89 -82 -59 -152 -104 -157 -101 -4 3 -6 22 -4 43 2 20 8 127 14 237 15 257 28 426 34 433 3 3 61 -28 128 -68 68 -40 126 -75 131 -77 4 -2 7 4 7 14 0 17 -79 70 -205 139 -46 24 -65 39 -65 50 0 9 42 104 172 394 11 25 38 83 59 129 24 50 39 98 38 120 l0 36 -22 -45 c-13 -25 -53 -115 -91 -200 -38 -85 -86 -191 -106 -235 -20 -44 -42 -95 -50 -113 -7 -18 -17 -31 -23 -29 -5 1 -58 124 -116 272 -59 149 -123 311 -143 360 -19 50 -32 94 -28 98 7 8 401 -7 523 -20 48 -5 57 -3 57 11 0 9 -8 16 -20 16 -32 0 -33 21 -6 116 15 50 26 112 25 144 l0 55 -34 -115 c-19 -63 -34 -123 -35 -132 0 -9 -4 -19 -9 -22 -9 -6 -470 140 -484 154 -4 4 47 48 115 97 470 347 448 330 448 349 0 9 -4 14 -10 12 -8 -3 -173 -124 -469 -344 -53 -39 -99 -69 -103 -67 -5 2 -8 17 -8 32 0 16 -9 91 -20 167 -11 76 -25 175 -31 219 -13 99 -26 190 -39 276 -18 119 -21 116 63 71 111 -61 604 -312 612 -312 3 0 5 7 3 16 -2 8 -63 47 -137 85 -74 38 -136 71 -138 73 -4 4 241 402 263 427 8 8 14 31 14 49 0 29 -19 2 -139 -191 -77 -123 -147 -234 -156 -247 l-17 -23 -176 91 c-97 51 -181 96 -187 102 -7 7 -4 14 8 22 10 6 47 31 82 56 35 25 119 83 186 130 68 47 163 113 213 148 50 35 112 78 139 95 27 18 47 39 47 50 0 22 18 33 -275 -172 -366 -256 -432 -301 -439 -294 -3 4 -4 54 -1 112 3 58 10 219 16 356 6 138 14 253 17 256 4 4 81 -16 172 -43 342 -102 498 -148 504 -148 3 0 6 6 6 13 0 8 -55 29 -147 56 -358 106 -477 142 -482 146 -2 3 0 9 5 14 9 9 196 89 469 201 72 30 136 59 144 67 34 30 -5 24 -96 -15 -54 -23 -106 -42 -115 -42 -16 0 -95 96 -304 372 -49 64 -131 171 -182 238 -51 67 -92 125 -90 131 2 5 62 -34 133 -86 72 -53 180 -132 240 -175 125 -91 299 -217 374 -272 48 -36 51 -37 51 -15 -1 16 -19 35 -68 69 -37 26 -150 108 -252 183 -102 75 -227 166 -277 202 -51 36 -93 69 -93 72 0 7 80 1 275 -18 61 -6 140 -14 176 -17 73 -7 64 2 129 -119 18 -33 40 -73 50 -90 10 -16 27 -48 39 -70 l21 -40 0 38 c0 22 -10 53 -23 75 -13 20 -43 73 -67 117 -24 44 -48 87 -53 95 -6 11 11 50 67 146 54 93 76 141 76 165 0 30 -6 23 -61 -74 -33 -59 -65 -107 -71 -107 -6 0 -7 33 -4 88 3 48 8 161 11 252 3 91 8 188 11 216 l6 51 54 -29 c52 -28 54 -29 54 -9 0 14 -13 27 -39 41 -22 11 -42 24 -46 30 -3 5 14 32 39 58 28 30 46 58 46 73 0 21 -7 17 -60 -36 -33 -32 -61 -57 -63 -54 -4 5 -49 101 -82 174 -13 28 -39 86 -60 130 -89 191 -145 315 -145 320 0 8 154 -113 352 -277 25 -21 48 -38 52 -38 3 0 6 717 6 1593 l0 1593 -147 13 c-82 7 -184 16 -228 21 -44 5 -136 14 -205 20 -261 24 -323 32 -309 43 2 2 77 28 166 59 l161 55 99 -32 c87 -29 382 -123 441 -140 33 -10 29 20 -5 33 -16 6 -102 34 -193 62 -266 83 -271 85 -272 95 0 10 97 46 350 132 130 44 140 48 103 51 -41 3 -170 -39 -663 -214 -38 -13 -68 -19 -68 -15 0 5 28 27 63 47 34 21 113 71 176 111 99 63 110 73 84 73 -17 0 -48 -11 -70 -25 -147 -96 -449 -282 -454 -279 -3 2 -19 71 -34 154 -20 103 -33 150 -42 150 -17 0 -17 -4 13 -163 15 -76 25 -140 22 -142 -2 -2 -42 3 -88 11 -47 8 -164 29 -260 45 -96 17 -197 34 -225 39 -27 5 -83 15 -122 21 -40 6 -73 15 -73 19 0 3 46 19 103 35 244 66 317 86 397 109 l85 25 -64 0 c-39 1 -94 -8 -145 -23 -44 -13 -135 -38 -201 -56 -66 -18 -158 -43 -205 -56 -46 -13 -87 -21 -92 -16 -4 4 -10 40 -14 80 -5 54 -11 72 -22 72 -16 0 -15 -26 7 -255 5 -49 6 -94 2 -98 -6 -6 -441 176 -606 253 -141 66 -233 100 -269 99 -33 0 -37 -2 -20 -9 28 -11 383 -165 449 -194 28 -13 116 -51 197 -86 81 -35 145 -66 143 -70 -2 -4 -28 -3 -57 1 -57 9 -536 76 -788 110 -202 27 -204 28 -195 82 3 23 10 56 15 72 18 66 20 95 5 95 -16 0 -19 -8 -43 -125 l-19 -90 -44 -7 c-64 -10 -489 -10 -489 0 0 5 37 40 83 79 45 40 98 88 116 107 l35 36 -25 0 c-14 0 -34 -10 -45 -21 -29 -33 -234 -212 -238 -208 -1 2 -27 54 -57 116 -38 79 -59 112 -71 113 -10 0 -18 -2 -18 -6 0 -3 84 -172 186 -376 102 -203 184 -372 182 -374 -2 -2 -67 -35 -145 -73 -105 -52 -144 -67 -151 -58 -8 9 -182 856 -182 883 0 2 -7 4 -15 4 -8 0 -15 -6 -14 -12 0 -7 35 -188 78 -401 42 -214 74 -390 70 -393 -4 -2 -52 48 -106 112 -54 64 -133 158 -175 208 -43 50 -78 100 -78 111 0 11 5 36 11 55 6 19 14 49 19 65 5 17 22 77 39 135 36 120 35 120 18 120 -13 0 -43 -87 -93 -265 -9 -33 -19 -63 -23 -67 -6 -6 -78 55 -279 240 -78 70 -108 92 -129 92 l-28 -1 35 -32 c20 -17 103 -93 184 -167 82 -74 153 -138 159 -142 40 -25 -50 -11 -278 42 -31 7 -293 64 -442 96 -13 2 -23 8 -23 13 0 5 23 48 50 96 28 48 50 88 50 91 0 2 -8 4 -19 4 -14 0 -67 -83 -211 -332 -187 -323 -215 -367 -224 -357 -2 2 2 37 10 78 8 41 23 127 35 190 34 195 37 213 53 301 22 122 23 120 -21 120 l-38 0 -42 -118z m67 4 c-6 -34 -15 -81 -20 -106 -5 -25 -18 -101 -30 -170 -12 -69 -25 -145 -30 -170 -5 -25 -17 -90 -26 -145 l-17 -100 -55 -45 c-30 -25 -75 -62 -100 -83 -24 -21 -46 -36 -48 -34 -3 2 21 76 51 163 31 87 74 209 95 269 55 159 156 444 171 485 19 50 24 13 9 -64z m3573 -96 c62 -10 153 -26 202 -35 50 -9 142 -25 205 -35 158 -27 173 -31 163 -41 -9 -9 -136 -21 -413 -39 -91 -6 -189 -13 -218 -15 -48 -5 -53 -3 -61 17 -12 32 -23 153 -14 161 9 10 11 9 136 -13z m-3033 -76 c140 -30 303 -65 363 -78 103 -22 126 -30 115 -41 -5 -5 -172 -65 -373 -135 -113 -39 -395 -138 -545 -192 -108 -38 -151 -51 -156 -45 -9 9 311 547 326 547 8 0 130 -25 270 -56z m1670 29 c0 -6 -58 -83 -268 -357 -37 -49 -72 -91 -77 -93 -10 -3 -225 416 -225 437 0 9 65 12 438 18 72 1 132 -1 132 -5z m224 -22 c100 -16 353 -51 681 -96 216 -30 240 -35 228 -45 -4 -4 -35 -22 -68 -40 -33 -17 -133 -72 -221 -121 -89 -49 -164 -89 -167 -89 -6 0 -533 374 -551 391 -13 12 21 12 98 0z m-201 -98 c4 -38 11 -167 17 -288 6 -121 13 -225 15 -232 9 -27 -19 -20 -138 37 -69 33 -151 71 -181 84 -31 14 -56 28 -56 31 0 4 57 81 127 173 70 92 143 188 162 214 20 26 39 47 42 47 3 1 9 -29 12 -66z m86 -29 c23 -47 41 -87 41 -89 0 -2 27 -60 60 -130 33 -70 60 -128 60 -130 0 -1 23 -52 51 -111 74 -157 100 -217 96 -221 -4 -3 -54 19 -239 105 l-86 41 -6 93 c-3 51 -10 165 -16 253 -11 168 -13 275 -6 275 3 0 23 -39 45 -86z m533 -290 l27 -22 -94 -191 c-52 -105 -97 -191 -100 -191 -5 0 -125 245 -125 255 0 2 -24 54 -53 116 -30 63 -69 148 -88 189 -18 41 -48 104 -65 140 -17 36 -30 68 -28 72 4 6 454 -308 526 -368z m-1821 239 c-6 -10 -63 -90 -128 -178 l-119 -160 -379 -3 c-222 -1 -375 1 -370 7 6 5 37 18 70 29 54 19 323 113 465 163 30 10 143 50 250 88 216 77 225 79 211 54z m74 -46 c4 -23 11 -58 16 -77 18 -71 89 -408 89 -425 0 -15 -3 -15 -32 3 -18 11 -60 34 -93 52 -162 88 -255 142 -255 148 0 16 252 352 260 347 5 -3 11 -24 15 -48z m138 -89 c52 -62 131 -156 176 -208 44 -52 81 -101 81 -107 0 -13 -209 -123 -233 -123 -9 0 -21 34 -36 103 -12 56 -26 122 -32 147 -55 249 -65 300 -58 300 4 0 50 -51 102 -112z m703 -219 c38 -17 120 -56 183 -85 62 -30 115 -54 116 -54 2 0 68 -31 148 -69 79 -38 154 -72 166 -76 37 -12 17 -30 -30 -28 -63 3 -425 22 -629 33 -96 6 -260 15 -365 20 -104 6 -194 15 -199 20 -6 6 52 39 155 89 90 43 211 102 268 130 57 28 107 51 111 51 4 0 38 -14 76 -31z m-1175 -294 c-2 -148 -5 -273 -8 -278 -4 -7 -108 62 -263 174 -36 25 -97 68 -135 95 -275 191 -383 269 -379 276 3 5 182 7 397 6 l392 -3 -4 -270z m-712 81 c58 -66 137 -154 174 -195 85 -93 131 -151 121 -151 -3 0 -99 48 -213 107 -113 58 -263 136 -334 172 -70 36 -126 69 -125 73 2 4 50 47 108 94 l105 86 29 -34 c16 -18 76 -87 135 -152z m994 54 c92 -51 167 -94 165 -95 -46 -46 -415 -342 -419 -337 -7 8 8 528 16 550 4 11 12 9 37 -6 18 -11 109 -61 201 -112z m-672 -200 c189 -133 346 -246 348 -252 2 -8 -18 -9 -68 -4 -39 3 -103 9 -141 12 l-71 7 -112 125 c-62 69 -146 164 -187 210 -91 102 -124 142 -117 142 3 0 160 -108 348 -240z m-577 41 c50 -27 204 -106 341 -176 138 -70 253 -130 257 -134 6 -5 -15 -157 -44 -309 l-10 -53 -56 63 c-32 35 -86 95 -122 133 -36 39 -128 140 -205 225 -77 85 -168 184 -202 221 -92 96 -88 99 41 30z m1909 19 c97 -6 257 -15 355 -20 97 -6 238 -13 312 -16 155 -6 192 -11 170 -24 -8 -4 -62 -20 -120 -35 -58 -14 -136 -35 -175 -45 -38 -10 -160 -42 -270 -70 -110 -28 -258 -67 -330 -86 -157 -41 -225 -57 -230 -52 -5 5 -145 357 -145 365 0 6 76 3 433 -17z m-398 -176 l72 -179 -26 -3 c-14 -2 -89 1 -166 7 -77 6 -189 13 -248 17 -59 4 -106 11 -105 15 5 15 382 328 392 325 5 -1 42 -83 81 -182z m-1637 109 c43 -111 190 -589 183 -596 -4 -4 -53 -10 -109 -14 l-102 -6 0 321 c0 179 4 322 9 322 5 0 13 -12 19 -27z m174 -129 c73 -80 169 -186 213 -235 44 -48 118 -129 164 -178 61 -67 79 -92 68 -97 -8 -3 -68 1 -133 10 -66 8 -149 18 -186 21 -72 8 -78 12 -95 65 -6 19 -46 141 -88 270 -96 292 -95 290 -85 290 5 0 69 -66 142 -146z m2791 103 c-5 -10 -258 -353 -269 -366 -4 -4 -141 8 -319 29 -44 5 -134 14 -200 21 -223 22 -310 34 -310 44 0 6 20 15 45 21 64 17 417 108 600 156 364 95 445 115 453 111 4 -2 4 -10 0 -16z m-1965 -257 c64 -5 196 -14 292 -20 273 -17 307 -21 287 -32 -10 -5 -136 -49 -280 -98 -144 -49 -334 -113 -422 -144 -87 -30 -161 -53 -164 -51 -3 4 25 201 46 323 5 32 5 32 65 32 33 0 112 -4 176 -10z m884 -59 c40 -5 125 -15 188 -21 63 -6 151 -15 195 -20 44 -5 133 -15 198 -21 65 -7 114 -16 110 -20 -7 -7 -157 -39 -453 -99 -52 -11 -205 -42 -340 -70 -135 -28 -301 -62 -370 -75 -69 -14 -133 -27 -143 -29 -10 -3 -17 -1 -15 4 2 5 108 88 237 184 262 197 238 186 393 167z m-292 -45 c-8 -7 -107 -82 -219 -166 l-203 -152 -102 11 c-277 30 -297 33 -284 46 3 3 165 60 359 126 195 66 370 126 389 134 19 7 44 13 55 14 17 1 17 -1 5 -13z m967 -92 c-3 -3 -128 -79 -276 -169 l-271 -163 -148 19 c-81 10 -187 23 -237 29 -179 21 -260 33 -270 38 -11 7 -17 6 300 71 440 91 549 113 705 146 153 33 209 41 197 29z m-2339 -201 c58 -238 92 -390 90 -402 -2 -9 -77 83 -167 202 -90 120 -160 221 -156 225 7 8 95 18 171 21 l50 1 12 -47z m197 27 c50 -5 124 -14 165 -20 41 -5 79 -10 83 -10 7 0 88 -164 162 -325 12 -27 41 -89 64 -137 22 -48 41 -90 41 -94 0 -7 -149 128 -300 271 -47 44 -143 133 -213 198 -122 114 -147 145 -109 133 9 -3 58 -10 107 -16z m299 -439 c97 -88 246 -232 246 -237 0 -12 -18 -8 -415 100 -49 14 -109 30 -132 36 -48 12 -45 5 -93 215 -18 77 -41 173 -51 214 -10 41 -16 78 -13 83 3 4 89 -70 191 -164 102 -95 222 -206 267 -247z m149 389 c186 -22 262 -31 273 -35 12 -4 -115 -528 -133 -546 -6 -6 -28 29 -63 103 -29 62 -80 172 -114 243 -33 72 -73 155 -87 185 -15 30 -25 58 -22 62 2 4 16 5 31 3 15 -2 66 -9 115 -15z m557 -70 c47 -6 123 -15 170 -21 47 -6 119 -14 160 -19 41 -6 103 -13 138 -16 34 -4 62 -10 62 -13 0 -3 -44 -29 -98 -57 -209 -111 -371 -194 -375 -194 -2 0 -24 26 -48 58 -151 195 -209 272 -209 278 0 7 37 4 200 -16z m-221 -21 c7 -12 52 -72 100 -133 47 -61 98 -128 113 -148 l28 -36 -83 -45 c-176 -95 -308 -160 -313 -154 -5 4 72 325 122 515 8 28 16 28 33 1z m641 -202 c-47 -45 -117 -112 -155 -148 l-70 -65 -110 -24 c-60 -12 -157 -33 -215 -46 -91 -20 -124 -23 -109 -10 2 1 65 35 139 73 266 138 496 258 535 279 75 40 70 24 -15 -59z m-1302 -263 c76 -20 182 -49 237 -64 55 -16 115 -31 132 -35 18 -4 35 -10 37 -14 5 -7 -427 -463 -444 -469 -6 -2 -10 5 -10 16 0 11 -9 64 -19 118 -17 88 -34 181 -72 389 -6 33 -13 68 -16 78 -6 23 -2 22 155 -19z m935 -202 c-69 -114 -180 -296 -245 -404 -66 -109 -123 -196 -127 -193 -8 4 -23 122 -61 495 -6 58 -13 124 -16 147 -6 47 -3 50 63 63 26 5 91 19 143 30 52 12 115 25 140 30 25 6 83 18 130 28 47 10 88 17 92 15 4 -2 -49 -97 -119 -211z m297 -37 c55 -126 112 -254 126 -283 13 -29 24 -54 24 -57 0 -2 18 -43 40 -91 23 -48 39 -89 36 -91 -2 -3 -62 26 -133 63 -70 38 -167 89 -214 114 -47 25 -95 52 -107 60 l-22 15 19 70 c10 39 38 142 61 229 43 165 58 212 64 205 2 -2 50 -107 106 -234z m-174 138 c-5 -19 -25 -94 -78 -293 -16 -63 -35 -121 -41 -128 -6 -7 -71 -63 -144 -123 -122 -100 -163 -129 -163 -117 0 3 53 92 118 199 65 107 147 241 182 299 104 171 110 180 121 180 6 0 8 -8 5 -17z m-587 -194 c6 -63 16 -154 21 -204 24 -226 32 -317 26 -322 -7 -7 -507 211 -507 221 -1 4 98 110 218 236 249 260 224 253 242 69z m3725 69 c201 -258 358 -461 372 -483 l18 -28 -29 5 c-17 3 -73 15 -125 27 -52 12 -133 30 -180 40 -263 58 -455 102 -458 105 -4 5 361 365 370 366 4 0 19 -15 32 -32z m-254 -134 c-193 -194 -157 -176 -435 -223 -132 -22 -282 -48 -333 -57 -89 -15 -117 -14 -96 5 7 7 870 368 954 399 14 5 27 8 30 5 2 -2 -52 -60 -120 -129z m-2893 -231 c37 -20 111 -59 163 -87 52 -29 130 -69 172 -91 43 -22 78 -43 78 -46 0 -6 -157 -98 -389 -230 -25 -14 -101 -58 -168 -97 -68 -39 -123 -65 -123 -59 0 12 192 647 196 647 1 0 33 -16 71 -37z m-213 -301 c-48 -158 -91 -291 -95 -296 -4 -5 -44 64 -88 152 l-81 161 53 45 c167 143 292 243 295 235 2 -6 -35 -139 -84 -297z m2811 298 c3 -5 -150 -113 -340 -240 l-345 -230 -11 27 c-54 136 -107 299 -100 306 11 11 29 15 341 68 260 44 444 76 447 78 1 1 5 -3 8 -9z m104 -105 c6 -44 20 -141 31 -215 11 -74 23 -155 27 -179 l6 -44 -75 7 c-92 8 -281 22 -501 37 -92 6 -180 14 -195 18 -25 7 5 29 328 244 240 160 357 233 361 224 4 -6 12 -48 18 -92z m140 80 c122 -29 134 -32 423 -96 51 -11 130 -29 175 -40 45 -10 88 -19 97 -19 27 0 27 -18 -2 -122 -45 -159 -69 -244 -97 -353 -15 -55 -30 -104 -34 -108 -7 -7 -94 88 -206 224 -16 20 -64 76 -105 124 -41 48 -91 107 -110 130 -19 23 -69 82 -110 130 -142 166 -139 155 -31 130z m67 -224 c77 -90 155 -183 174 -206 19 -23 69 -82 110 -130 132 -154 154 -185 136 -185 -3 0 -147 62 -241 105 -16 7 -84 36 -150 65 -66 28 -125 57 -132 63 -12 11 -19 48 -43 222 -5 39 -16 111 -24 160 -7 50 -11 94 -8 99 6 10 10 5 178 -193z m-3863 160 c23 -10 96 -42 162 -71 66 -29 138 -60 160 -70 22 -10 57 -25 77 -33 34 -14 44 -29 118 -177 45 -89 79 -164 77 -167 -3 -2 -74 54 -159 124 -84 70 -229 190 -321 267 -193 160 -197 164 -114 127z m223 -261 c169 -140 319 -265 333 -277 14 -12 24 -24 21 -26 -8 -8 -401 -45 -530 -50 l-45 -2 -6 40 c-3 22 -16 94 -28 160 -12 66 -26 143 -31 170 -5 28 -16 88 -24 135 -18 100 -19 113 -7 108 6 -1 148 -118 317 -258z m2514 142 c5 -15 29 -82 53 -150 44 -122 45 -123 23 -132 -209 -81 -426 -165 -567 -221 -186 -73 -221 -82 -179 -48 35 29 435 405 550 516 100 97 101 97 120 35z m-2841 -70 c6 -31 15 -83 21 -114 12 -67 23 -128 44 -247 l15 -83 -70 -162 c-39 -88 -77 -178 -86 -198 -23 -51 -33 -48 -28 10 3 26 9 108 15 182 6 74 15 185 20 245 5 61 14 180 20 265 7 85 14 166 17 180 l5 25 9 -23 c5 -13 13 -49 18 -80z m2711 80 c0 -5 -33 -38 -72 -74 -40 -36 -140 -129 -223 -207 -82 -78 -154 -140 -160 -139 -19 6 -185 102 -185 108 0 6 618 318 633 319 4 1 7 -3 7 -7z m2065 -267 c51 -110 114 -245 139 -299 26 -55 45 -105 44 -111 -2 -8 -69 0 -228 26 -124 21 -228 38 -233 39 -9 0 -5 19 43 190 21 74 55 197 76 273 37 137 38 138 52 110 9 -15 57 -118 107 -228z m-3232 8 c80 -328 90 -374 84 -379 -2 -3 -38 10 -78 29 -41 19 -103 47 -139 63 -36 16 -98 44 -137 64 l-73 35 63 82 c34 45 98 129 142 187 44 58 83 106 86 106 4 0 27 -84 52 -187z m101 58 c39 -46 87 -103 106 -126 19 -23 81 -97 138 -163 56 -67 102 -125 102 -131 0 -9 -243 -26 -294 -19 -34 4 -31 -3 -96 273 -23 99 -46 193 -51 209 -5 16 -9 38 -9 49 0 17 2 18 17 6 9 -8 48 -52 87 -98z m-244 79 c0 -10 -41 -66 -150 -205 -26 -33 -80 -107 -119 -165 -39 -58 -93 -136 -121 -175 -28 -38 -71 -100 -97 -137 -46 -68 -60 -79 -68 -55 -6 15 -65 363 -65 381 0 12 56 49 180 119 25 14 131 75 235 136 105 60 193 110 198 110 4 1 7 -4 7 -9z m310 -36 c30 -17 78 -44 105 -59 221 -122 392 -219 402 -227 9 -7 -11 -32 -74 -91 -47 -45 -89 -83 -93 -85 -7 -2 -47 43 -180 203 -19 23 -78 94 -130 156 -131 157 -127 151 -104 142 10 -4 44 -21 74 -39z m1064 -500 c-86 -175 -185 -379 -220 -453 -55 -115 -67 -133 -78 -120 -11 12 -380 535 -401 569 -3 5 2 13 12 16 30 11 683 263 758 294 39 15 74 24 78 20 4 -3 -63 -150 -149 -326z m546 316 c353 -23 465 -32 472 -38 5 -6 -58 -120 -128 -230 l-15 -23 -97 52 c-53 28 -110 59 -127 69 -16 10 -73 40 -125 68 -174 93 -200 108 -193 115 3 4 20 5 37 2 17 -3 96 -10 176 -15z m-264 -9 c5 -4 59 -34 119 -66 61 -32 115 -61 120 -65 6 -4 51 -29 100 -55 172 -91 235 -127 235 -132 0 -7 -160 -273 -165 -273 -2 0 -36 46 -76 102 -40 56 -107 148 -148 204 -105 141 -196 267 -205 282 -8 14 5 16 20 3z m42 -147 c59 -81 153 -208 208 -284 130 -176 139 -189 128 -199 -5 -5 -97 -34 -204 -65 -107 -32 -246 -73 -309 -92 -62 -18 -117 -32 -121 -29 -8 5 0 58 25 160 8 33 42 186 75 340 71 326 69 315 81 315 5 0 58 -66 117 -146z m979 26 c114 -50 222 -97 238 -105 17 -7 43 -18 58 -24 15 -6 27 -15 27 -19 0 -5 -35 -22 -77 -37 -43 -15 -168 -61 -278 -102 -110 -41 -207 -76 -215 -76 -16 -2 -16 36 0 158 5 39 14 121 21 183 6 61 13 112 15 112 1 0 96 -41 211 -90z m-257 13 c0 -10 -4 -45 -9 -78 -5 -33 -15 -118 -22 -189 l-13 -128 -30 -14 c-57 -25 -228 -85 -232 -81 -2 2 31 61 73 133 91 154 103 176 168 288 50 86 65 102 65 69z m-920 -60 c-4 -21 -38 -178 -76 -350 l-69 -312 -109 -35 c-60 -20 -112 -33 -115 -31 -7 7 359 765 370 765 4 0 3 -17 -1 -37z m-2210 19 c0 -5 -14 -21 -31 -38 -17 -16 -108 -111 -201 -211 -93 -101 -173 -183 -178 -183 -4 0 -18 28 -30 63 -13 34 -45 117 -72 185 -26 67 -48 126 -48 131 0 14 17 16 435 51 50 4 98 8 108 8 9 1 17 -2 17 -6z m596 -248 c55 -131 107 -255 115 -274 33 -76 52 -131 46 -137 -4 -3 -31 6 -62 21 -31 14 -57 26 -60 26 -2 0 -32 13 -67 29 -35 16 -132 59 -216 96 -84 37 -155 72 -158 76 -7 12 278 410 291 406 5 -2 55 -111 111 -243z m95 180 c79 -36 170 -77 202 -91 31 -15 57 -31 57 -37 -1 -30 -146 -440 -155 -437 -5 2 -49 99 -98 215 -48 116 -94 225 -101 241 -24 51 -66 158 -66 167 0 14 15 9 161 -58z m-654 24 c-2 -7 -28 -87 -57 -178 -126 -401 -152 -480 -158 -484 -4 -2 -55 48 -114 112 l-107 116 116 125 c162 175 306 321 316 321 5 0 7 -6 4 -12z m68 -212 l27 -159 -121 -120 c-66 -67 -123 -119 -126 -116 -5 6 13 67 85 294 22 66 49 152 60 190 34 110 30 102 39 85 5 -8 21 -87 36 -174z m-711 -123 c4 -153 3 -243 -3 -243 -5 0 -48 23 -95 51 l-85 51 25 56 c14 32 30 67 35 80 5 13 20 48 34 78 14 30 25 56 25 58 0 8 52 117 55 114 1 -2 5 -112 9 -245z m86 133 c18 -50 46 -121 61 -159 16 -38 26 -74 22 -81 -14 -24 -117 -146 -124 -146 -7 0 -19 471 -12 483 9 15 20 -5 53 -97z m4526 69 c269 -45 259 -42 243 -61 -7 -8 -40 -36 -73 -61 -91 -69 -381 -292 -530 -406 -41 -32 -80 -56 -85 -53 -5 3 19 76 53 164 35 86 89 223 120 305 32 81 59 147 60 147 2 0 97 -16 212 -35z m-2716 -102 c-205 -534 -235 -608 -246 -608 -5 0 -14 79 -20 175 -33 501 -34 524 -24 534 12 12 310 25 324 14 4 -3 -11 -55 -34 -115z m2460 118 c0 -5 -8 -28 -19 -52 -18 -42 -92 -232 -181 -461 -23 -61 -47 -108 -55 -108 -13 0 -57 17 -143 56 -29 13 -55 24 -57 24 -2 0 -34 14 -70 30 -36 17 -68 30 -70 30 -2 0 -34 14 -70 30 -36 17 -68 30 -70 30 -2 0 -28 11 -57 24 -29 13 -70 31 -90 39 -21 9 -38 20 -38 24 0 4 30 19 68 32 58 20 458 168 742 274 106 40 110 41 110 28z m-2166 -338 c97 -139 179 -259 182 -267 4 -10 -42 -29 -183 -74 -103 -34 -191 -58 -196 -53 -4 4 -10 160 -13 347 l-6 339 20 -20 c11 -11 99 -134 196 -272z m-239 -82 c4 -170 4 -314 0 -320 -9 -16 -378 -331 -382 -327 -2 1 24 74 58 162 33 87 78 204 99 259 21 55 66 172 100 260 34 88 72 186 84 217 11 32 24 58 27 58 4 0 10 -139 14 -309z m2935 -51 c-6 -162 -12 -304 -13 -315 -2 -18 -8 -20 -57 -18 -129 6 -473 42 -481 51 -6 6 210 257 494 577 l62 69 4 -34 c2 -19 -2 -168 -9 -330z m-3302 138 c7 -112 15 -250 19 -307 4 -67 2 -102 -4 -98 -13 8 -163 213 -163 224 0 18 123 383 130 383 3 0 12 -91 18 -202z m3152 107 c0 -4 -392 -457 -444 -512 -9 -10 -24 -4 -69 28 -32 23 -56 46 -54 52 2 6 44 42 93 79 49 38 148 113 219 168 72 55 155 119 185 144 52 42 70 53 70 41z m-3877 -91 c34 -15 95 -42 135 -60 41 -19 75 -34 77 -34 2 0 32 -13 67 -29 35 -16 94 -42 131 -58 38 -17 69 -34 70 -39 1 -9 -539 -344 -555 -344 -9 0 -11 461 -2 538 4 28 9 52 11 52 2 0 32 -12 66 -26z m-120 -512 l-8 -51 -137 147 -137 147 142 143 142 142 3 -238 c1 -131 -1 -262 -5 -290z m2766 266 c72 -109 131 -203 131 -208 0 -6 -8 -9 -17 -6 -10 3 -49 14 -88 24 -72 20 -216 59 -410 112 -60 17 -162 44 -225 61 -133 36 -153 44 -124 52 152 45 392 116 479 142 61 18 113 30 116 27 4 -4 66 -96 138 -204z m-3193 81 c125 -135 292 -315 344 -373 l45 -49 -65 6 c-203 20 -426 49 -433 56 -10 10 3 463 13 459 4 -2 47 -46 96 -99z m3456 -36 c176 -76 323 -144 326 -151 2 -8 -17 -109 -43 -225 -26 -117 -51 -229 -55 -250 -4 -21 -12 -43 -18 -49 -7 -7 -94 117 -276 391 -146 220 -266 405 -266 411 0 5 3 10 6 10 3 0 150 -62 326 -137z m-3602 -173 c-5 -157 -7 -295 -3 -307 3 -13 1 -23 -5 -23 -6 0 -13 19 -17 43 -3 23 -10 62 -15 87 -5 25 -19 97 -30 160 -12 63 -26 136 -31 162 l-11 47 54 65 c29 36 56 62 60 58 3 -4 2 -135 -2 -292z m-224 219 c56 -33 85 -58 88 -72 3 -12 7 -38 11 -57 3 -19 24 -132 46 -250 22 -118 43 -232 46 -252 11 -73 -15 -38 -65 90 -28 70 -89 226 -137 347 -48 121 -89 226 -92 233 -9 23 19 12 103 -39z m1558 -194 c78 -103 96 -135 81 -135 -3 0 -60 -9 -128 -19 -67 -11 -169 -27 -227 -35 -58 -9 -165 -25 -238 -36 -154 -23 -152 -23 -152 -11 0 12 545 350 567 350 6 1 50 -51 97 -114z m2714 -137 c38 -51 111 -147 162 -213 51 -66 123 -160 161 -210 38 -49 96 -126 130 -170 34 -43 57 -81 52 -82 -10 -4 -695 225 -705 235 -5 5 59 319 107 520 3 13 9 20 14 18 5 -3 40 -47 79 -98z m-2603 -28 c4 -6 -16 -68 -43 -138 -27 -70 -52 -135 -55 -145 -7 -20 -7 -20 -162 23 -111 30 -326 89 -423 116 -99 27 -83 37 93 63 44 6 139 20 210 31 72 11 166 25 210 31 44 7 96 15 115 19 49 11 48 11 55 0z m-1235 -70 c52 -6 142 -15 199 -21 137 -14 148 -19 155 -66 8 -56 41 -267 66 -424 12 -75 20 -144 18 -154 -3 -18 -12 -9 -351 394 -67 79 -148 174 -179 210 -58 67 -64 85 -25 76 12 -2 65 -9 117 -15z m376 -677 c-3 -3 -45 11 -93 30 -293 119 -425 175 -433 183 -10 10 -30 262 -30 382 l0 73 281 -331 c154 -183 278 -334 275 -337z m299 537 c61 -16 160 -43 220 -60 61 -17 129 -35 153 -41 23 -6 42 -15 42 -20 0 -7 -580 -430 -599 -437 -9 -3 -18 42 -52 258 -11 74 -29 187 -39 250 -10 62 -17 117 -15 121 3 3 44 -4 92 -17 49 -13 138 -38 198 -54z m3355 -375 c195 -65 357 -119 359 -121 2 -2 2 -7 -1 -10 -8 -8 -407 -174 -417 -174 -10 0 -321 412 -321 425 0 4 6 5 13 3 6 -3 172 -58 367 -123z m-236 -141 l143 -192 -108 -212 c-109 -215 -129 -249 -129 -217 0 9 -4 60 -10 114 -9 94 -18 209 -40 481 -6 70 -12 149 -15 175 -2 28 0 47 5 45 5 -2 74 -89 154 -194z m149 -341 c-18 -507 -26 -619 -42 -637 -9 -10 -81 -73 -160 -140 -79 -66 -199 -167 -265 -223 -67 -56 -125 -102 -129 -103 -5 0 11 37 36 83 24 45 158 308 297 585 140 276 256 502 260 502 3 0 5 -30 3 -67z m21 -820 c9 -71 21 -159 26 -198 6 -38 15 -104 21 -145 6 -41 14 -102 19 -135 21 -142 23 -198 9 -193 -8 3 -100 33 -206 67 l-192 63 25 56 c14 31 30 67 35 80 5 12 17 41 28 65 10 23 42 96 71 162 29 66 64 145 77 175 14 30 32 72 40 93 8 20 18 37 22 37 4 0 15 -57 25 -127z m-88 74 c-7 -18 -30 -70 -51 -117 -62 -140 -70 -160 -125 -285 -92 -209 -90 -206 -104 -198 -33 20 -202 141 -228 163 l-29 25 137 115 c167 140 247 207 333 282 36 31 69 54 73 52 4 -3 2 -19 -6 -37z m-586 -562 c-8 -77 -16 -162 -40 -435 -6 -69 -15 -161 -21 -204 -5 -44 -9 -101 -9 -128 0 -26 -4 -48 -10 -48 -5 0 -10 1 -10 3 0 2 -56 138 -125 302 l-126 300 43 40 c163 151 293 264 299 257 4 -4 4 -43 -1 -87z m115 60 c28 -19 109 -76 181 -127 72 -51 194 -138 272 -193 78 -55 141 -103 142 -106 0 -7 -286 -19 -461 -19 l-128 0 -5 33 c-71 430 -73 447 -58 447 4 0 30 -16 57 -35z m-50 -281 c13 -82 38 -234 55 -339 17 -104 35 -220 42 -258 6 -37 9 -70 5 -73 -7 -7 -129 -23 -181 -24 l-39 0 6 53 c4 28 11 104 17 167 5 63 15 165 20 225 6 61 15 164 20 230 11 125 19 179 26 172 2 -2 15 -71 29 -153z m713 -8 c174 -58 350 -115 389 -128 40 -13 73 -27 73 -32 0 -5 -41 -6 -97 -2 -54 3 -157 9 -230 13 l-131 6 -84 59 c-45 32 -122 86 -170 119 -49 34 -88 63 -88 65 0 10 38 -2 338 -100z m-1168 -19 c0 -21 -166 -676 -173 -683 -4 -4 -46 76 -94 177 -49 101 -116 240 -149 309 -34 69 -59 128 -55 132 3 4 65 17 136 29 72 12 159 27 195 34 90 17 140 18 140 2z m169 -325 c67 -162 126 -305 131 -318 13 -34 -5 -40 -180 -54 -80 -7 -171 -15 -203 -19 -32 -4 -59 -5 -61 -2 -3 5 157 656 169 690 3 9 9 11 14 5 5 -5 63 -141 130 -302z m-719 224 c0 -7 -310 -469 -325 -484 -10 -11 -26 9 -89 107 -42 66 -76 124 -76 128 0 8 467 252 483 253 4 0 7 -2 7 -4z m110 -108 c29 -62 94 -196 143 -298 49 -102 89 -189 90 -195 2 -11 -22 -10 -123 5 -36 5 -137 19 -225 31 -222 29 -291 43 -287 58 4 17 335 511 343 511 3 0 30 -51 59 -112z m1550 43 c0 -5 -12 -19 -26 -30 -31 -25 -310 -278 -407 -370 -44 -42 -71 -61 -77 -55 -12 12 -82 423 -76 441 5 13 79 17 409 21 103 1 177 -2 177 -7z m20 -151 c-21 -247 -30 -379 -30 -433 0 -37 -4 -59 -12 -62 -7 -3 -105 27 -218 66 -113 39 -213 73 -222 76 -10 3 -18 8 -18 12 0 3 55 56 121 116 67 61 178 162 248 227 69 64 129 113 133 110 4 -4 3 -54 -2 -112z m186 -275 c76 -189 135 -347 133 -350 -3 -2 -75 20 -160 49 l-154 54 1 83 c2 159 29 509 38 509 2 0 66 -155 142 -345z m-3216 295 c113 -6 266 -15 340 -20 74 -5 195 -12 269 -16 73 -3 144 -9 158 -13 l24 -6 -33 -41 c-18 -23 -94 -113 -168 -200 -74 -87 -160 -187 -190 -223 -31 -36 -62 -66 -69 -66 -16 0 -622 585 -616 595 3 5 22 6 43 5 20 -2 129 -9 242 -15z m-472 -32 c-5 -14 -36 -36 -383 -268 l-226 -152 -124 78 c-148 93 -160 102 -153 109 7 7 228 69 588 165 107 28 215 58 240 65 58 17 63 18 58 3z m451 -270 c160 -155 291 -285 291 -289 0 -4 -8 -5 -17 -3 -10 2 -110 26 -223 53 -113 27 -240 57 -283 67 -113 26 -109 22 -98 134 6 52 13 146 17 208 3 61 10 112 14 112 4 0 138 -127 299 -282z m-385 250 c-4 -7 -31 -51 -59 -98 -217 -352 -289 -467 -299 -477 -9 -10 -41 6 -143 70 -73 45 -133 85 -133 88 0 3 113 81 252 175 138 93 279 188 312 211 63 44 83 52 70 31z m42 -95 c-4 -43 -11 -127 -15 -186 -5 -72 -12 -112 -22 -121 -24 -23 -302 -176 -310 -170 -4 2 18 46 50 97 31 50 108 174 171 275 62 100 118 182 123 182 6 0 7 -29 3 -77z m1247 -10 c223 -350 268 -425 264 -437 -3 -7 -27 -16 -54 -20 -26 -3 -128 -21 -226 -39 -98 -19 -180 -30 -182 -26 -4 6 123 529 140 577 7 21 14 14 58 -55z m-122 -74 c-11 -41 -41 -157 -66 -259 -26 -102 -50 -188 -54 -192 -5 -5 -267 55 -276 64 -2 2 33 46 78 99 45 53 114 134 152 179 159 189 180 211 183 197 2 -8 -6 -47 -17 -88z m-2144 -116 c11 -21 42 -78 68 -128 26 -49 51 -94 55 -100 4 -5 29 -50 55 -100 26 -49 59 -109 72 -132 l24 -42 -38 -10 c-188 -50 -519 -131 -535 -131 -12 0 -18 5 -15 13 16 36 166 387 204 477 24 58 52 124 61 148 9 23 19 42 22 42 4 0 16 -17 27 -37z m71 8 c15 -11 106 -69 202 -129 241 -150 320 -201 320 -206 0 -3 -183 -109 -282 -162 -6 -4 -36 47 -118 201 -24 44 -46 85 -50 90 -18 26 -110 204 -110 214 0 15 7 14 38 -8z m2512 -41 c41 -6 155 -22 252 -35 97 -14 180 -25 184 -25 4 0 4 -4 -2 -9 -13 -13 -433 -146 -439 -139 -15 17 -135 211 -135 219 0 6 14 8 33 5 17 -3 66 -10 107 -16z m1288 -75 c33 -142 96 -409 113 -475 10 -41 15 -78 11 -82 -4 -4 -32 9 -62 30 -30 21 -134 92 -230 157 -96 66 -220 150 -275 188 -55 38 -135 92 -177 120 -43 29 -78 55 -78 58 0 9 47 17 175 29 61 5 160 15 220 21 231 23 270 25 281 14 6 -5 16 -32 22 -60z m180 4 c65 -22 153 -53 197 -69 44 -16 161 -56 260 -91 99 -34 183 -65 188 -68 6 -6 -132 -30 -548 -97 -32 -5 -26 -13 -118 151 -16 27 -34 59 -41 70 -22 35 -76 134 -76 139 0 11 24 5 138 -35z m-854 -150 c59 -73 105 -134 103 -136 -3 -2 -60 7 -128 21 -68 13 -211 41 -316 62 -106 21 -193 41 -193 45 0 4 39 19 88 34 48 15 139 44 202 65 63 21 120 39 127 39 6 1 59 -58 117 -130z m-2214 69 c0 -17 -4 -59 -9 -92 -12 -74 -25 -169 -48 -343 -9 -73 -20 -133 -23 -133 -6 0 -209 88 -350 151 -25 11 -78 35 -119 52 -40 18 -73 37 -72 42 0 8 140 90 416 245 28 15 82 46 120 68 39 23 73 41 78 41 4 1 7 -13 7 -31z m244 -95 c102 -71 229 -157 281 -193 155 -105 230 -160 233 -170 5 -14 -2 -15 -188 -39 -91 -12 -192 -26 -225 -31 -160 -25 -377 -52 -382 -46 -5 5 9 129 37 336 5 30 13 96 19 145 13 103 19 125 31 125 5 0 92 -57 194 -127z m129 68 c111 -27 300 -72 420 -101 119 -29 219 -55 221 -59 8 -13 -185 -272 -197 -264 -14 8 -145 97 -442 301 -115 79 -217 150 -225 158 -12 12 -12 14 3 14 10 0 109 -22 220 -49z m1955 -38 c70 -47 161 -110 202 -138 41 -28 130 -89 198 -135 67 -45 121 -85 118 -87 -2 -3 -82 28 -178 67 -244 101 -288 121 -288 132 0 6 -28 45 -63 87 -95 116 -129 161 -122 161 4 0 64 -39 133 -87z m632 57 c0 -5 18 -39 40 -75 22 -36 40 -67 40 -70 0 -3 18 -34 40 -70 22 -36 40 -68 40 -70 0 -3 11 -22 23 -43 13 -20 35 -57 49 -82 14 -25 51 -89 82 -144 31 -54 56 -102 54 -107 -3 -8 -237 126 -260 149 -5 5 -27 83 -49 173 -89 372 -87 365 -69 354 6 -3 10 -10 10 -15z m-1387 -454 c4 -209 4 -363 -1 -368 -9 -9 -486 621 -484 638 1 5 25 13 54 20 49 10 83 16 253 46 33 6 74 14 90 19 17 4 41 7 55 6 l25 -2 8 -359z m402 289 c153 -31 281 -58 284 -60 2 -3 2 -7 -1 -10 -7 -8 -368 -67 -384 -63 -17 3 -212 169 -213 181 -2 13 29 8 314 -48z m-235 -70 c55 -48 100 -90 100 -94 0 -3 -34 -76 -76 -161 -42 -85 -92 -189 -112 -230 l-35 -75 -8 40 c-4 22 -8 174 -8 338 -1 298 -1 298 19 284 12 -8 66 -54 120 -102z m2000 49 c0 -5 -79 -116 -200 -279 -20 -27 -63 -85 -94 -129 -49 -66 -60 -76 -71 -65 -34 36 -226 387 -212 389 1 1 117 20 257 45 250 43 320 51 320 39z m-2618 -101 c23 -32 127 -172 231 -311 103 -138 186 -256 183 -260 -5 -9 -547 66 -559 78 -5 4 8 106 28 226 43 263 56 324 66 324 5 0 27 -26 51 -57z m2629 -168 c-15 -237 -30 -438 -34 -441 -7 -7 -307 178 -307 189 0 7 39 64 85 127 47 63 125 168 173 234 63 86 88 113 91 100 2 -11 -2 -104 -8 -209z m-2745 83 c-9 -51 -27 -156 -41 -233 -14 -77 -25 -146 -25 -154 0 -11 -13 -12 -62 -8 -94 9 -199 25 -204 30 -3 3 38 65 90 138 52 74 104 148 116 164 154 218 152 217 126 63z m-1716 -68 c-6 -47 -16 -149 -24 -228 -8 -79 -16 -146 -19 -148 -6 -6 -491 288 -516 312 -13 11 -12 14 2 20 52 20 553 141 559 135 4 -4 3 -45 -2 -91z m288 -11 c114 -50 233 -103 265 -117 31 -14 57 -30 57 -35 0 -16 -305 -416 -311 -409 -4 4 -26 59 -49 122 -23 63 -49 133 -57 155 -31 82 -133 366 -133 371 0 11 37 -3 228 -87z m-135 -274 c58 -159 104 -292 102 -294 -3 -2 -227 146 -264 175 -3 3 5 82 31 322 6 57 14 99 18 95 5 -4 55 -138 113 -298z m1347 229 c0 -5 -143 -208 -159 -227 -4 -4 -74 8 -157 27 -82 19 -203 46 -269 61 -137 30 -150 34 -143 40 5 5 150 27 428 65 85 12 178 25 205 29 64 11 95 13 95 5z m-1850 -174 c231 -140 268 -165 259 -174 -2 -2 -67 -21 -144 -41 -77 -21 -205 -55 -285 -76 -387 -104 -440 -117 -440 -107 0 6 55 97 121 202 67 105 140 220 162 256 54 87 68 102 81 91 6 -5 117 -73 246 -151z m-340 105 c0 -4 -247 -400 -296 -474 l-26 -40 -91 81 c-51 44 -93 84 -95 88 -2 4 16 21 40 37 207 141 343 234 393 269 57 41 75 50 75 39z m4653 -103 c72 -43 196 -116 274 -162 79 -47 139 -87 135 -91 -4 -3 -72 -11 -152 -18 -80 -6 -172 -14 -206 -17 l-61 -6 -13 34 c-8 18 -42 102 -77 186 -35 84 -63 155 -63 158 0 10 28 -4 163 -84z m-3208 38 c28 -6 97 -22 155 -36 58 -13 146 -33 195 -45 146 -34 136 -40 -90 -60 -66 -5 -165 -14 -220 -19 -165 -15 -149 -24 -143 74 6 93 12 109 36 102 10 -3 40 -10 67 -16z m-129 -92 c-7 -57 -23 -263 -33 -421 -3 -54 -9 -100 -13 -102 -9 -6 -263 169 -261 181 0 5 58 86 128 179 183 245 190 252 179 163z m614 -65 c0 -5 -26 -21 -58 -38 -31 -16 -102 -55 -157 -85 -151 -83 -194 -105 -198 -100 -88 108 -138 172 -135 175 4 4 162 21 328 35 74 6 144 13 155 14 42 6 65 6 65 -1z m119 -30 c9 -37 36 -155 87 -375 14 -62 29 -125 34 -140 5 -15 5 -30 1 -32 -10 -7 -611 317 -608 328 3 8 92 60 286 163 58 31 120 65 136 75 43 26 53 23 64 -19z m238 12 c527 -73 629 -88 635 -94 3 -3 -82 -65 -190 -138 -108 -73 -268 -180 -355 -239 -87 -58 -160 -104 -163 -101 -3 3 -14 43 -25 89 -10 46 -33 142 -49 213 -75 326 -70 295 -49 295 10 0 98 -11 196 -25z m-734 -308 c149 -188 171 -222 146 -212 -8 2 -52 9 -99 15 -47 6 -123 15 -169 21 -107 14 -134 24 -127 47 3 9 10 91 16 182 14 214 14 214 54 169 17 -19 98 -119 179 -222z m-993 215 c0 -9 -480 -368 -490 -365 -3 1 -45 20 -93 42 -49 23 -90 41 -92 41 -13 0 -135 62 -135 69 0 4 55 22 123 39 67 18 154 40 192 51 75 20 206 55 363 97 53 14 99 28 101 30 8 7 31 4 31 -4z m236 -64 c57 -40 144 -100 192 -133 180 -124 252 -177 252 -185 0 -10 -33 -21 -180 -59 -63 -16 -160 -42 -215 -56 -224 -60 -280 -74 -284 -69 -4 4 7 64 79 414 16 80 30 148 30 153 0 17 26 3 126 -65z m-215 -220 c-30 -150 -56 -275 -58 -277 -4 -5 -403 171 -402 178 0 10 503 380 510 376 3 -2 -19 -127 -50 -277z m1138 16 c58 -31 120 -64 136 -74 17 -9 71 -39 120 -65 117 -62 124 -69 55 -62 -97 10 -224 28 -242 33 -14 4 -101 106 -181 212 -16 21 2 14 112 -44z m-1847 -43 c24 -10 78 -35 121 -55 43 -20 80 -36 82 -36 2 0 34 -14 72 -31 273 -125 281 -135 80 -99 -195 35 -191 33 -303 131 -135 117 -141 129 -52 90z m1408 -263 c3 -89 1 -142 -5 -144 -5 -2 -109 14 -230 36 -121 23 -242 45 -270 50 -200 36 -200 37 -39 79 60 16 199 52 309 81 110 28 202 54 204 56 17 16 27 -35 31 -158z m209 142 c80 -11 175 -24 211 -29 36 -6 140 -20 233 -32 92 -13 164 -26 160 -29 -5 -4 -62 -22 -128 -40 -66 -18 -165 -45 -220 -60 -213 -59 -405 -110 -414 -110 -9 0 -13 39 -26 233 -7 103 -27 96 184 67z m-1321 -121 c28 -5 77 -13 107 -19 30 -5 79 -14 108 -20 28 -5 201 -36 382 -70 182 -34 357 -66 390 -71 33 -6 61 -12 64 -15 8 -8 35 0 -354 -104 -82 -22 -199 -53 -258 -69 l-108 -28 -130 121 c-72 66 -170 156 -218 199 -97 87 -108 103 -65 93 16 -4 53 -12 82 -17z m75 -207 c95 -88 183 -169 196 -179 l24 -20 -34 -20 c-19 -11 -91 -51 -162 -87 -90 -48 -128 -64 -132 -54 -2 7 -18 83 -36 168 -17 85 -41 203 -53 263 -12 59 -20 109 -18 112 8 8 38 -18 215 -183z m-212 -9 c16 -76 43 -203 59 -283 16 -80 45 -218 64 -308 18 -89 30 -161 26 -160 -9 3 -45 49 -194 245 l-107 142 25 118 c14 65 37 174 51 243 31 145 33 155 41 147 4 -3 19 -68 35 -144z m1173 -76 c-27 -29 -94 -104 -149 -167 -141 -162 -197 -221 -206 -218 -4 2 -76 57 -158 122 -133 106 -166 136 -146 136 3 0 70 17 148 39 78 21 214 57 302 80 88 24 171 46 185 51 14 5 36 9 49 9 22 1 20 -4 -25 -52z m-580 -253 c147 -117 152 -122 145 -129 -4 -3 -56 1 -115 10 -93 14 -233 35 -412 61 -23 4 -41 11 -40 16 2 5 66 42 143 83 135 71 141 73 160 56 11 -10 65 -53 119 -97z m-765 -139 c6 -44 19 -150 31 -235 42 -323 61 -467 70 -535 11 -86 -1 -102 -31 -44 -22 45 -70 134 -119 224 -15 28 -43 79 -62 115 -19 36 -65 120 -102 187 -36 67 -66 126 -66 130 -1 14 255 252 262 245 4 -4 11 -43 17 -87z m411 45 c41 -5 104 -14 140 -20 285 -42 336 -50 348 -50 41 0 3 -25 -288 -187 -19 -11 -76 -43 -126 -71 -89 -50 -114 -60 -114 -44 0 4 -14 72 -31 152 -53 256 -52 245 -19 235 8 -3 49 -9 90 -15z m-283 -137 c49 -65 147 -194 218 -288 71 -93 141 -185 157 -204 33 -42 37 -37 -98 -142 -203 -157 -248 -189 -254 -182 -4 5 -12 51 -19 103 -6 52 -16 124 -21 160 -5 36 -23 173 -40 305 -17 132 -35 265 -39 295 -8 48 -7 70 3 70 2 0 43 -53 93 -117z m803 9 c0 -5 -28 -47 -62 -93 -34 -46 -107 -145 -162 -219 -54 -74 -110 -150 -123 -168 -13 -18 -28 -30 -33 -27 -21 13 -160 209 -153 215 7 6 112 66 478 271 57 33 55 32 55 21z"/>
 </g>
<g id="layer103" fill="#4e4e4e" stroke="none">
 </g>
<g id="layer104" fill="#898989" stroke="none">
 </g>

</svg>